Proyecto No.1
…
Modelo de Vehículo

#Modelo de Vehiculo
df <- datos %>%
  group_by(Modelo.del.Vehiculo) %>%
  summarise(count = n())
df

## # A tibble: 104 x 2
##    Modelo.del.Vehiculo count
##                  <int> <int>
##  1                1900   375
##  2                1910     1
##  3                1911     1
##  4                1918     1
##  5                1921     1
##  6                1922     2
##  7                1923     3
##  8                1924     2
##  9                1925     4
## 10                1926     4
## # ... with 94 more rows
…
